{
	"_id": "6062a8eb834de22e84600edd",
	"userId": "507f1f77bcf86cd799439011",
	"transactionDate": "2020-03-12T15:00:00.00Z",
	"status": "pending",
	"total": "209"
}

{
	"_id": "603e10d3b30fd23b081a94eb",
	"userId": "507f1f77bcf86cd799439011",
	"transactionDate": "2020-03-12T15:00:00.00Z",
	"status": "pending",
	"total": "648"
}